Expected transactions/Actual transactions  = 5400000/6722029
RUNNER 0:
Requested TPS=3000 Actual TPS=3752 Size=10000000 Duration (seconds)=179
GET_SUBSCRIBER_DATA_WALL_MILLIS 
 Reports=         4235427 Average=               0, Total=         628,302, 50%=               0, 95%=               0, 99%=               0, 99.5%=               0, 99.95%=               0, Max=             528
GET_SUBSCRIBER_DATA_VOLT_CLIENT_MS 
 Reports=         4235427 Average=               0, Total=          28,898, 50%=               0, 95%=               0, 99%=               0, 99.5%=               0, 99.95%=               0, Max=              32
GET_SUBSCRIBER_DATA_VOLT_CLUSTER_MS 
 Reports=         4235427 Average=               0, Total=           2,333, 50%=               0, 95%=               0, 99%=               0, 99.5%=               0, 99.95%=               0, Max=               7

GET_NEW_DESTINATION_WALL_MILLIS 
 Reports=          673291 Average=               0, Total=         102,452, 50%=               0, 95%=               0, 99%=               0, 99.5%=               0, 99.95%=               0, Max=              27
GET_NEW_DESTINATION_VOLT_CLIENT_MS 
 Reports=          673291 Average=               0, Total=           4,616, 50%=               0, 95%=               0, 99%=               0, 99.5%=               0, 99.95%=               0, Max=              26
GET_NEW_DESTINATION_VOLT_CLUSTER_MS 
 Reports=          673291 Average=               0, Total=             346, 50%=               0, 95%=               0, 99%=               0, 99.5%=               0, 99.95%=               0, Max=               6

GET_ACCESS_DATA_WALL_MILLIS 
 Reports=          403437 Average=               0, Total=          59,959, 50%=               0, 95%=               0, 99%=               0, 99.5%=               0, 99.95%=               0, Max=              32
GET_ACCESS_DATA_VOLT_CLIENT_MS 
 Reports=          403437 Average=               0, Total=           2,553, 50%=               0, 95%=               0, 99%=               0, 99.5%=               0, 99.95%=               0, Max=               8
GET_ACCESS_DATA_VOLT_CLUSTER_MS 
 Reports=          403437 Average=               0, Total=             206, 50%=               0, 95%=               0, 99%=               0, 99.5%=               0, 99.95%=               0, Max=               6

UPDATE_SUBSCRIBER_DATA_WALL_MILLIS 
 Reports=          133974 Average=               0, Total=          24,511, 50%=               0, 95%=               0, 99%=               0, 99.5%=               0, 99.95%=               0, Max=               8
UPDATE_SUBSCRIBER_DATA_VOLT_CLIENT_MS 
 Reports=          133974 Average=               0, Total=             981, 50%=               0, 95%=               0, 99%=               0, 99.5%=               0, 99.95%=               0, Max=               7
UPDATE_SUBSCRIBER_DATA_VOLT_CLUSTER_MS 
 Reports=          133974 Average=               0, Total=              98, 50%=               0, 95%=               0, 99%=               0, 99.5%=               0, 99.95%=               0, Max=               6

UPDATE_LOCATION_2_WALL_MILLIS 
 Reports=         1007184 Average=               1, Total=         977,211, 50%=               1, 95%=               1, 99%=               2, 99.5%=               2, 99.95%=               2, Max=             540
UPDATE_LOCATION_VOLT_CLIENT_MS 
 Reports=         1007184 Average=               0, Total=         182,622, 50%=               0, 95%=               0, 99%=               0, 99.5%=               0, 99.95%=               0, Max=             535
UPDATE_LOCATION_2_VOLT_CLIENT_MS 
 Reports=         1007184 Average=               0, Total=           1,947, 50%=               0, 95%=               0, 99%=               0, 99.5%=               0, 99.95%=               0, Max=               6
UPDATE_LOCATION_VOLT_CLUSTER_MS 
 Reports=         1007184 Average=               0, Total=         124,627, 50%=               0, 95%=               0, 99%=               0, 99.5%=               0, 99.95%=               0, Max=              11
UPDATE_LOCATION_2_VOLT_CLUSTER_MS 
 Reports=         1007184 Average=               0, Total=             517, 50%=               0, 95%=               0, 99%=               0, 99.5%=               0, 99.95%=               0, Max=               6

INSERT_CALL_FORWARDING_2_WALL_MILLIS 
 Reports=          134291 Average=               1, Total=         130,820, 50%=               1, 95%=               2, 99%=               2, 99.5%=               2, 99.95%=               2, Max=             532
INSERT_CALL_FORWARDING_VOLT_CLIENT_MS 
 Reports=          134291 Average=               0, Total=          24,366, 50%=               0, 95%=               0, 99%=               0, 99.5%=               0, 99.95%=               0, Max=             530
INSERT_CALL_FORWARDING_2_VOLT_CLIENT_MS 
 Reports=          134291 Average=               0, Total=             312, 50%=               0, 95%=               0, 99%=               0, 99.5%=               0, 99.95%=               0, Max=               6
INSERT_CALL_FORWARDING_VOLT_CLUSTER_MS 
 Reports=          134291 Average=               0, Total=          16,567, 50%=               0, 95%=               0, 99%=               0, 99.5%=               0, 99.95%=               0, Max=               9
INSERT_CALL_FORWARDING_2_VOLT_CLUSTER_MS 
 Reports=          134291 Average=               0, Total=              87, 50%=               0, 95%=               0, 99%=               0, 99.5%=               0, 99.95%=               0, Max=               5

DELETE_CALL_FORWARDING_2_WALL_MILLIS 
 Reports=          134425 Average=               1, Total=         127,328, 50%=               1, 95%=               1, 99%=               2, 99.5%=               2, 99.95%=               2, Max=             529
DELETE_CALL_FORWARDING_VOLT_CLIENT_MS 
 Reports=          134425 Average=               0, Total=          23,914, 50%=               0, 95%=               0, 99%=               0, 99.5%=               0, 99.95%=               0, Max=             527
DELETE_CALL_FORWARDING_2_VOLT_CLIENT_MS 
 Reports=          134425 Average=               0, Total=             253, 50%=               0, 95%=               0, 99%=               0, 99.5%=               0, 99.95%=               0, Max=               6
DELETE_CALL_FORWARDING_VOLT_CLUSTER_MS 
 Reports=          134425 Average=               0, Total=          16,399, 50%=               0, 95%=               0, 99%=               0, 99.5%=               0, 99.95%=               0, Max=               9
DELETE_CALL_FORWARDING_2_VOLT_CLUSTER_MS 
 Reports=          134425 Average=               0, Total=              54, 50%=               0, 95%=               0, 99%=               0, 99.5%=               0, 99.95%=               0, Max=               5


TPS TPS 
 Reports=              35 Average=          45,401, Total=       1,589,024, 50%=           44616, 95%=           44762, 99%=           71548, 99.5%=           71548, 99.95%=           71548, Max=           71548


org.voltdb.client.ClientImpl@527740a2
Extra runner 0
Requested TPS=3000 Actual TPS=3752
Extra runner 1
Requested TPS=3000 Actual TPS=3756
Extra runner 2
Requested TPS=3000 Actual TPS=3755
Extra runner 3
Requested TPS=3000 Actual TPS=3755
Extra runner 4
Requested TPS=3000 Actual TPS=3756
Extra runner 5
Requested TPS=3000 Actual TPS=3755
Extra runner 6
Requested TPS=3000 Actual TPS=3755
Extra runner 7
Requested TPS=3000 Actual TPS=3755
Extra runner 8
Requested TPS=3000 Actual TPS=3755
Extra runner 9
Requested TPS=3000 Actual TPS=3754
